<?xml version="1.0" encoding="UTF-8" standalone="no"?>
<!-- Created with Inkscape (http://www.inkscape.org/) -->

<svg
   xmlns:dc="http://purl.org/dc/elements/1.1/"
   xmlns:cc="http://creativecommons.org/ns#"
   xmlns:rdf="http://www.w3.org/1999/02/22-rdf-syntax-ns#"
   xmlns:svg="http://www.w3.org/2000/svg"
   xmlns="http://www.w3.org/2000/svg"
   xmlns:sodipodi="http://sodipodi.sourceforge.net/DTD/sodipodi-0.dtd"
   xmlns:inkscape="http://www.inkscape.org/namespaces/inkscape"
   width="744.09448819"
   height="1052.3622047"
   id="svg2"
   version="1.1"
   inkscape:version="0.48.0 r9654"
   sodipodi:docname="1_example.svg">
  <defs
     id="defs4">
    <marker
       inkscape:stockid="Arrow1Lend"
       orient="auto"
       refY="0.0"
       refX="0.0"
       id="Arrow1Lend"
       style="overflow:visible;">
      <path
         id="path3904"
         d="M 0.0,0.0 L 5.0,-5.0 L -12.5,0.0 L 5.0,5.0 L 0.0,0.0 z "
         style="fill-rule:evenodd;stroke:#000000;stroke-width:1.0pt;marker-start:none;"
         transform="scale(0.8) rotate(180) translate(12.5,0)" />
    </marker>
  </defs>
  <sodipodi:namedview
     id="base"
     pagecolor="#ffffff"
     bordercolor="#666666"
     borderopacity="1.0"
     inkscape:pageopacity="0.0"
     inkscape:pageshadow="2"
     inkscape:zoom="0.98994949"
     inkscape:cx="217.4162"
     inkscape:cy="671.90709"
     inkscape:document-units="px"
     inkscape:current-layer="layer1"
     showgrid="false"
     inkscape:window-width="1920"
     inkscape:window-height="1018"
     inkscape:window-x="-8"
     inkscape:window-y="-8"
     inkscape:window-maximized="1" />
  <metadata
     id="metadata7">
    <rdf:RDF>
      <cc:Work
         rdf:about="">
        <dc:format>image/svg+xml</dc:format>
        <dc:type
           rdf:resource="http://purl.org/dc/dcmitype/StillImage" />
        <dc:title></dc:title>
      </cc:Work>
    </rdf:RDF>
  </metadata>
  <g
     inkscape:label="Layer 1"
     inkscape:groupmode="layer"
     id="layer1">
    <path
       style="fill:none;stroke:#000000;stroke-width:2;stroke-linecap:butt;stroke-linejoin:miter;stroke-opacity:1;marker-end:url(#Arrow1Lend);stroke-miterlimit:4;stroke-dasharray:none;fill-opacity:1;opacity:0.5"
       d="m 147.48227,527.08286 312.13714,0"
       id="path3892"
       inkscape:connector-curvature="0" />
    <path
       style="fill:none;stroke:#000000;stroke-width:2;stroke-linecap:butt;stroke-linejoin:miter;stroke-opacity:1;marker-end:url(#Arrow1Lend);stroke-miterlimit:4;stroke-dasharray:none;fill-opacity:1;opacity:0.5"
       d="M 139.40105,510.92042 270.72088,352.32647"
       id="path3894"
       inkscape:connector-curvature="0" />
    <path
       style="fill:none;stroke:#000000;stroke-width:2;stroke-linecap:butt;stroke-linejoin:miter;stroke-opacity:1;marker-end:url(#Arrow1Lend);stroke-miterlimit:4;stroke-dasharray:none;fill-opacity:1;opacity:0.5"
       d="m 125.25892,504.8595 0,-287.89347"
       id="path3896"
       inkscape:connector-curvature="0" />
    <path
       sodipodi:type="arc"
       style="fill:#ffffff;fill-opacity:1;stroke:#000000;stroke-width:7.1639452;stroke-linecap:round;stroke-linejoin:round;stroke-miterlimit:4;stroke-opacity:1;stroke-dasharray:none;stroke-dashoffset:0"
       id="path3773"
       sodipodi:cx="108.08632"
       sodipodi:cy="247.2706"
       sodipodi:rx="32.324883"
       sodipodi:ry="34.345188"
       d="m 140.4112,247.2706 a 32.324883,34.345188 0 1 1 -64.649764,0 32.324883,34.345188 0 1 1 64.649764,0 z"
       transform="matrix(0.69832585,0,0,0.65724785,49.520529,164.84411)" />
    <path
       sodipodi:type="arc"
       style="fill:#ffffff;fill-opacity:1;stroke:#000000;stroke-width:7.1639452;stroke-linecap:round;stroke-linejoin:round;stroke-miterlimit:4;stroke-opacity:1;stroke-dasharray:none;stroke-dashoffset:0"
       id="path3773-7"
       sodipodi:cx="108.08632"
       sodipodi:cy="247.2706"
       sodipodi:rx="32.324883"
       sodipodi:ry="34.345188"
       d="m 140.4112,247.2706 a 32.324883,34.345188 0 1 1 -64.649764,0 32.324883,34.345188 0 1 1 64.649764,0 z"
       transform="matrix(0.69832585,0,0,0.65724785,49.520529,364.84411)" />
    <path
       sodipodi:type="arc"
       style="fill:#ffffff;fill-opacity:1;stroke:#000000;stroke-width:7.1639452;stroke-linecap:round;stroke-linejoin:round;stroke-miterlimit:4;stroke-opacity:1;stroke-dasharray:none;stroke-dashoffset:0"
       id="path3773-5"
       sodipodi:cx="108.08632"
       sodipodi:cy="247.2706"
       sodipodi:rx="32.324883"
       sodipodi:ry="34.345188"
       d="m 140.4112,247.2706 a 32.324883,34.345188 0 1 1 -64.649764,0 32.324883,34.345188 0 1 1 64.649764,0 z"
       transform="matrix(0.69832585,0,0,0.65724785,249.52053,364.84411)" />
    <path
       sodipodi:type="arc"
       style="fill:#ffffff;fill-opacity:1;stroke:#000000;stroke-width:7.1639452;stroke-linecap:round;stroke-linejoin:round;stroke-miterlimit:4;stroke-opacity:1;stroke-dasharray:none;stroke-dashoffset:0"
       id="path3773-0"
       sodipodi:cx="108.08632"
       sodipodi:cy="247.2706"
       sodipodi:rx="32.324883"
       sodipodi:ry="34.345188"
       d="m 140.4112,247.2706 a 32.324883,34.345188 0 1 1 -64.649764,0 32.324883,34.345188 0 1 1 64.649764,0 z"
       transform="matrix(0.69832585,0,0,0.65724785,249.52053,164.84411)" />
    <path
       sodipodi:type="arc"
       style="fill:#ffffff;fill-opacity:1;stroke:#000000;stroke-width:7.1639452;stroke-linecap:round;stroke-linejoin:round;stroke-miterlimit:4;stroke-opacity:1;stroke-dasharray:none;stroke-dashoffset:0"
       id="path3773-6"
       sodipodi:cx="108.08632"
       sodipodi:cy="247.2706"
       sodipodi:rx="32.324883"
       sodipodi:ry="34.345188"
       d="m 140.4112,247.2706 a 32.324883,34.345188 0 1 1 -64.649764,0 32.324883,34.345188 0 1 1 64.649764,0 z"
       transform="matrix(0.62849327,0,0,0.59152306,154.56848,73.59592)" />
    <path
       sodipodi:type="arc"
       style="fill:#ffffff;fill-opacity:1;stroke:#000000;stroke-width:7.1639452;stroke-linecap:round;stroke-linejoin:round;stroke-miterlimit:4;stroke-opacity:1;stroke-dasharray:none;stroke-dashoffset:0"
       id="path3773-7-1"
       sodipodi:cx="108.08632"
       sodipodi:cy="247.2706"
       sodipodi:rx="32.324883"
       sodipodi:ry="34.345188"
       d="m 140.4112,247.2706 a 32.324883,34.345188 0 1 1 -64.649764,0 32.324883,34.345188 0 1 1 64.649764,0 z"
       transform="matrix(0.62849327,0,0,0.59152306,154.56848,263.59591)" />
    <path
       sodipodi:type="arc"
       style="fill:#ffffff;fill-opacity:1;stroke:#000000;stroke-width:7.1639452;stroke-linecap:round;stroke-linejoin:round;stroke-miterlimit:4;stroke-opacity:1;stroke-dasharray:none;stroke-dashoffset:0"
       id="path3773-5-8"
       sodipodi:cx="108.08632"
       sodipodi:cy="247.2706"
       sodipodi:rx="32.324883"
       sodipodi:ry="34.345188"
       d="m 140.4112,247.2706 a 32.324883,34.345188 0 1 1 -64.649764,0 32.324883,34.345188 0 1 1 64.649764,0 z"
       transform="matrix(0.62849327,0,0,0.59152306,344.56848,263.59591)" />
    <path
       sodipodi:type="arc"
       style="fill:#ffffff;fill-opacity:1;stroke:#000000;stroke-width:7.1639452;stroke-linecap:round;stroke-linejoin:round;stroke-miterlimit:4;stroke-opacity:1;stroke-dasharray:none;stroke-dashoffset:0"
       id="path3773-0-1"
       sodipodi:cx="108.08632"
       sodipodi:cy="247.2706"
       sodipodi:rx="32.324883"
       sodipodi:ry="34.345188"
       d="m 140.4112,247.2706 a 32.324883,34.345188 0 1 1 -64.649764,0 32.324883,34.345188 0 1 1 64.649764,0 z"
       transform="matrix(0.62849327,0,0,0.59152306,344.56848,73.59592)" />
    <path
       style="fill:none;stroke:#000000;stroke-width:4;stroke-linecap:round;stroke-linejoin:miter;stroke-miterlimit:4;stroke-opacity:1;stroke-dasharray:16, 16;stroke-dashoffset:0"
       d="m 140.16519,310.64158 68.68614,-75.73086"
       id="path3866"
       inkscape:connector-type="polyline"
       inkscape:connector-curvature="0"
       inkscape:connection-start="#path3773"
       inkscape:connection-start-point="d4"
       inkscape:connection-end="#path3773-6"
       inkscape:connection-end-point="d4" />
    <path
       style="fill:none;stroke:#000000;stroke-width:4;stroke-linecap:round;stroke-linejoin:miter;stroke-miterlimit:4;stroke-opacity:1;stroke-dasharray:16, 16;stroke-dashoffset:0"
       d="m 242.81598,219.86218 149.36805,0"
       id="path3870"
       inkscape:connector-type="polyline"
       inkscape:connector-curvature="0"
       inkscape:connection-start="#path3773-6"
       inkscape:connection-start-point="d4"
       inkscape:connection-end="#path3773-0-1"
       inkscape:connection-end-point="d4" />
    <path
       style="fill:none;stroke:#000000;stroke-width:4;stroke-linecap:round;stroke-linejoin:miter;stroke-miterlimit:4;stroke-opacity:1;stroke-dasharray:16, 16;stroke-dashoffset:0"
       d="m 399.67471,235.61897 -60.42438,74.23567"
       id="path3872"
       inkscape:connector-type="polyline"
       inkscape:connector-curvature="0"
       inkscape:connection-start="#path3773-0-1"
       inkscape:connection-start-point="d4"
       inkscape:connection-end="#path3773-0"
       inkscape:connection-end-point="d4" />
    <path
       style="fill:none;stroke:#000000;stroke-width:4;stroke-linecap:round;stroke-linejoin:miter;stroke-miterlimit:4;stroke-opacity:1;stroke-dasharray:16, 16;stroke-dashoffset:0"
       d="m 302.4267,327.36218 -154.8534,0"
       id="path3874"
       inkscape:connector-type="polyline"
       inkscape:connector-curvature="0"
       inkscape:connection-start="#path3773-0"
       inkscape:connection-start-point="d4"
       inkscape:connection-end="#path3773"
       inkscape:connection-end-point="d4" />
    <path
       style="fill:none;stroke:#000000;stroke-width:4;stroke-linecap:round;stroke-linejoin:miter;stroke-miterlimit:4;stroke-opacity:1;stroke-dasharray:16, 16;stroke-dashoffset:0"
       d="m 125,349.93548 0,154.8534"
       id="path3876"
       inkscape:connector-type="polyline"
       inkscape:connector-curvature="0"
       inkscape:connection-start="#path3773"
       inkscape:connection-start-point="d4"
       inkscape:connection-end="#path3773-7"
       inkscape:connection-end-point="d4" />
    <path
       style="fill:none;stroke:#000000;stroke-width:4;stroke-linecap:round;stroke-linejoin:miter;stroke-miterlimit:4;stroke-opacity:1;stroke-dasharray:16, 16;stroke-dashoffset:0"
       d="m 139.41506,509.99018 70.11139,-84.49321"
       id="path3878"
       inkscape:connector-type="polyline"
       inkscape:connector-curvature="0"
       inkscape:connection-start="#path3773-7"
       inkscape:connection-start-point="d4"
       inkscape:connection-end="#path3773-7-1"
       inkscape:connection-end-point="d4" />
    <path
       style="fill:none;stroke:#000000;stroke-width:4;stroke-linecap:round;stroke-linejoin:miter;stroke-miterlimit:4;stroke-opacity:1;stroke-dasharray:16, 16;stroke-dashoffset:0"
       d="m 222.5,240.17815 0,149.36805"
       id="path3880"
       inkscape:connector-type="polyline"
       inkscape:connector-curvature="0"
       inkscape:connection-start="#path3773-6"
       inkscape:connection-start-point="d4"
       inkscape:connection-end="#path3773-7-1"
       inkscape:connection-end-point="d4" />
    <path
       style="fill:none;stroke:#000000;stroke-width:4;stroke-linecap:round;stroke-linejoin:miter;stroke-miterlimit:4;stroke-opacity:1;stroke-dasharray:16, 16;stroke-dashoffset:0"
       d="m 242.81598,409.86217 149.36805,0"
       id="path3882"
       inkscape:connector-type="polyline"
       inkscape:connector-curvature="0"
       inkscape:connection-start="#path3773-7-1"
       inkscape:connection-start-point="d4"
       inkscape:connection-end="#path3773-5-8"
       inkscape:connection-end-point="d4" />
    <path
       style="fill:none;stroke:#000000;stroke-width:4;stroke-linecap:round;stroke-linejoin:miter;stroke-miterlimit:4;stroke-opacity:1;stroke-dasharray:16, 16;stroke-dashoffset:0"
       d="m 412.5,389.5462 0,-149.36805"
       id="path3884"
       inkscape:connector-type="polyline"
       inkscape:connector-curvature="0"
       inkscape:connection-start="#path3773-5-8"
       inkscape:connection-start-point="d4"
       inkscape:connection-end="#path3773-0-1"
       inkscape:connection-end-point="d4" />
    <path
       style="fill:none;stroke:#000000;stroke-width:4;stroke-linecap:round;stroke-linejoin:miter;stroke-miterlimit:4;stroke-opacity:1;stroke-dasharray:16, 16;stroke-dashoffset:0"
       d="m 325,349.93548 0,154.8534"
       id="path3886"
       inkscape:connector-type="polyline"
       inkscape:connector-curvature="0"
       inkscape:connection-start="#path3773-0"
       inkscape:connection-start-point="d4"
       inkscape:connection-end="#path3773-5"
       inkscape:connection-end-point="d4" />
    <path
       style="fill:none;stroke:#000000;stroke-width:4;stroke-linecap:round;stroke-linejoin:miter;stroke-miterlimit:4;stroke-opacity:1;stroke-dasharray:16, 16;stroke-dashoffset:0"
       d="m 338.48309,509.25631 61.88213,-83.09886"
       id="path3888"
       inkscape:connector-type="polyline"
       inkscape:connector-curvature="0"
       inkscape:connection-start="#path3773-5"
       inkscape:connection-start-point="d4"
       inkscape:connection-end="#path3773-5-8"
       inkscape:connection-end-point="d4" />
    <path
       style="fill:none;stroke:#000000;stroke-width:4;stroke-linecap:round;stroke-linejoin:miter;stroke-miterlimit:4;stroke-opacity:1;stroke-dasharray:16, 16;stroke-dashoffset:0"
       d="m 302.4267,527.36218 -154.8534,0"
       id="path3890"
       inkscape:connector-type="polyline"
       inkscape:connector-curvature="0"
       inkscape:connection-start="#path3773-5"
       inkscape:connection-start-point="d4"
       inkscape:connection-end="#path3773-7"
       inkscape:connection-end-point="d4" />
    <text
       xml:space="preserve"
       style="font-size:24px;font-style:normal;font-weight:bold;line-height:125%;letter-spacing:0px;word-spacing:0px;fill:#000000;fill-opacity:1;stroke:none;font-family:Times New Roman;-inkscape-font-specification:Times New Roman;opacity:0.5"
       x="451.53821"
       y="555.36713"
       id="text4370"
       sodipodi:linespacing="125%"><tspan
         sodipodi:role="line"
         id="tspan4372"
         x="451.53821"
         y="555.36713">X</tspan></text>
    <text
       xml:space="preserve"
       style="font-size:24px;font-style:normal;font-weight:bold;line-height:125%;letter-spacing:0px;word-spacing:0px;fill:#000000;fill-opacity:1;stroke:none;font-family:Times New Roman;-inkscape-font-specification:Times New Roman;opacity:0.5"
       x="272.74118"
       y="380.61072"
       id="text4374"
       sodipodi:linespacing="125%"><tspan
         sodipodi:role="line"
         id="tspan4376"
         x="272.74118"
         y="380.61072">Y</tspan></text>
    <text
       xml:space="preserve"
       style="font-size:24px;font-style:normal;font-weight:bold;line-height:125%;letter-spacing:0px;word-spacing:0px;fill:#000000;fill-opacity:1;stroke:none;font-family:Times New Roman;-inkscape-font-specification:Times New Roman;opacity:0.5"
       x="94.954338"
       y="235.14877"
       id="text4378"
       sodipodi:linespacing="125%"><tspan
         sodipodi:role="line"
         id="tspan4380"
         x="94.954338"
         y="235.14877">Z</tspan></text>
    <text
       xml:space="preserve"
       style="font-size:24px;font-style:normal;font-weight:bold;line-height:125%;letter-spacing:0px;word-spacing:0px;fill:#000000;fill-opacity:1;stroke:none;font-family:Times New Roman;-inkscape-font-specification:Times New Roman"
       x="119.198"
       y="532.13367"
       id="text4382"
       sodipodi:linespacing="125%"><tspan
         sodipodi:role="line"
         id="tspan4384"
         x="119.198"
         y="532.13367">1</tspan></text>
    <text
       xml:space="preserve"
       style="font-size:24px;font-style:normal;font-weight:bold;line-height:125%;letter-spacing:0px;word-spacing:0px;fill:#000000;fill-opacity:1;stroke:none;font-family:Times New Roman;-inkscape-font-specification:Times New Roman"
       x="319.20819"
       y="533.1438"
       id="text4386"
       sodipodi:linespacing="125%"><tspan
         sodipodi:role="line"
         id="tspan4388"
         x="319.20819"
         y="533.1438">2</tspan></text>
    <text
       xml:space="preserve"
       style="font-size:24px;font-style:normal;font-weight:bold;line-height:125%;letter-spacing:0px;word-spacing:0px;fill:#000000;fill-opacity:1;stroke:none;font-family:Times New Roman;-inkscape-font-specification:Times New Roman"
       x="216.17264"
       y="416.97623"
       id="text4390"
       sodipodi:linespacing="125%"><tspan
         sodipodi:role="line"
         id="tspan4392"
         x="216.17264"
         y="416.97623">3</tspan></text>
    <text
       xml:space="preserve"
       style="font-size:24px;font-style:normal;font-weight:bold;line-height:125%;letter-spacing:0px;word-spacing:0px;fill:#000000;fill-opacity:1;stroke:none;font-family:Times New Roman;-inkscape-font-specification:Times New Roman"
       x="406.08133"
       y="416.97626"
       id="text4394"
       sodipodi:linespacing="125%"><tspan
         sodipodi:role="line"
         id="tspan4396"
         x="406.08133"
         y="416.97626">4</tspan></text>
    <text
       xml:space="preserve"
       style="font-size:24px;font-style:normal;font-weight:bold;line-height:125%;letter-spacing:0px;word-spacing:0px;fill:#000000;fill-opacity:1;stroke:none;font-family:Times New Roman;-inkscape-font-specification:Times New Roman"
       x="118.18784"
       y="335.15387"
       id="text4398"
       sodipodi:linespacing="125%"><tspan
         sodipodi:role="line"
         id="tspan4400"
         x="118.18784"
         y="335.15387">5</tspan></text>
    <text
       xml:space="preserve"
       style="font-size:24px;font-style:normal;font-weight:bold;line-height:125%;letter-spacing:0px;word-spacing:0px;fill:#000000;fill-opacity:1;stroke:none;font-family:Times New Roman;-inkscape-font-specification:Times New Roman"
       x="319.20819"
       y="334.14374"
       id="text4402"
       sodipodi:linespacing="125%"><tspan
         sodipodi:role="line"
         id="tspan4404"
         x="319.20819"
         y="334.14374">6</tspan></text>
    <text
       xml:space="preserve"
       style="font-size:24px;font-style:normal;font-weight:bold;line-height:125%;letter-spacing:0px;word-spacing:0px;fill:#000000;fill-opacity:1;stroke:none;font-family:Times New Roman;-inkscape-font-specification:Times New Roman"
       x="216.17264"
       y="225.04726"
       id="text4406"
       sodipodi:linespacing="125%"><tspan
         sodipodi:role="line"
         id="tspan4408"
         x="216.17264"
         y="225.04726">7</tspan></text>
    <text
       xml:space="preserve"
       style="font-size:24px;font-style:normal;font-weight:bold;line-height:125%;letter-spacing:0px;word-spacing:0px;fill:#000000;fill-opacity:1;stroke:none;font-family:Times New Roman;-inkscape-font-specification:Times New Roman"
       x="407.09149"
       y="226.05739"
       id="text4410"
       sodipodi:linespacing="125%"><tspan
         sodipodi:role="line"
         id="tspan4412"
         x="407.09149"
         y="226.05739">8</tspan></text>
  </g>
</svg>
